h_id,TEN,g_id
74754660,,1544
76074045,1.0,1602
76237960,3.0,1609
4906797,3.0,2280
91564302,1.0,294
62312170,3.0,1398
69527258,,1499
38875673,1.0,992
49583008,3.0,1921
69291486,3.0,1521
135466851,2.0,600
116736010,1.0,710
80939904,,1063
56444791,2.0,1324
112067297,1.0,2120
127016683,1.0,788
1717792,2.0,2259
122355285,3.0,749
35537266,3.0,1772
99656192,1.0,581
137162556,2.0,642
41383648,3.0,1790
129372367,2.0,1944
100624943,4.0,506
123699825,1.0,846
93974533,1.0,434
126446447,3.0,892
88109510,2.0,384
123113162,3.0,900
34735694,1.0,1691
40596474,3.0,1042
138819870,1.0,663
140156344,3.0,676
52519048,2.0,1252
89065096,1.0,322
67691878,1.0,1467
37954560,,1021
117280998,1.0,720
24644064,1.0,1185
62802779,2.0,1420
126301855,1.0,796
34943427,,1698
136268709,1.0,597
75443828,1.0,1592
139360334,1.0,672
5035277,3.0,2305
59840765,3.0,1351
99878400,,538
48909046,2.0,1891
94148183,3.0,429
122921912,1.0,754
88974449,1.0,380
20601457,1.0,48
140006052,1.0,660
133440124,3.0,2016
62734490,1.0,1409
122442519,3.0,818
32195581,3.0,1701
110514388,2.0,2054
87394650,3.0,394
56767041,3.0,1295
117145647,3.0,713
20021497,1.0,190
44770854,3.0,1847
33293016,3.0,1739
32984355,2.0,1721
99325800,1.0,540
48796695,1.0,1938
117493142,1.0,723
40701380,,1033
95866514,,441
103044896,1.0,2195
131655686,3.0,1987
44300173,2.0,1819
93951932,2.0,480
14104134,3.0,155
39645648,2.0,982
113688380,1.0,2129
123214213,2.0,811
62283237,1.0,1392
82659358,1.0,1120
13663387,2.0,123
89974312,1.0,392
129063462,3.0,1946
77835645,1.0,1632
110090620,3.0,2065
99777469,,579
54513153,3.0,1265
4434195,,2317
62769378,3.0,1410
76270106,2.0,1602
15432040,,35
104963191,4.0,2232
63144497,1.0,1400
127338638,1.0,825
124871262,3.0,831
125037222,1.0,899
62292665,1.0,1402
135229205,3.0,610
41110009,1.0,1794
131821480,2.0,1982
124563457,3.0,942
25793071,1.0,1207
102998827,1.0,2204
4410791,1.0,2318
108327845,2.0,2071
90232652,3.0,365
23833422,3.0,1160
39158712,3.0,1031
135363218,1.0,620
24758987,1.0,1196
67630370,1.0,1461
100131910,2.0,584
128158971,2.0,851
99168847,3.0,511
123091338,1.0,876
19876224,3.0,52
80723865,1.0,1077
131700992,2.0,2018
75347667,2.0,1595
80161092,1.0,1115
57440784,,1331
89793480,2.0,394
139262285,1.0,676
87649559,1.0,309
30479913,,1768
80680889,2.0,1101
139757469,1.0,657
67584007,1.0,1467
77454488,3.0,1625
124790919,2.0,803
135791575,3.0,605
136369869,1.0,630
77922333,1.0,1635
125226624,1.0,938
78070421,1.0,1635
116956252,2.0,707
15849445,3.0,214
41405107,,1793
2106291,2.0,2240
21284601,1.0,170
81781387,1.0,1070
70615958,,1527
15354108,3.0,130
77922982,3.0,1634
19084028,1.0,205
116806199,3.0,738
71244794,,2159
62346687,2.0,1402
54267417,3.0,1267
108133734,2.0,2031
140087409,3.0,677
95315550,2.0,431
25287690,1.0,1193
24676524,1.0,1195
81578591,1.0,1086
4573041,3.0,2310
81614342,3.0,1113
71309635,2.0,2162
14859525,,49
128075932,2.0,853
19946705,3.0,40
139352247,,690
32045862,3.0,1719
95280100,1.0,411
94946236,1.0,412
111162231,1.0,2097
136039902,3.0,624
101552802,1.0,516
45236291,1.0,1875
70194313,3.0,1506
116975344,,719
122979919,3.0,833
104592989,1.0,2213
99451712,3.0,557
95990128,3.0,463
44924042,3.0,1848
108356129,1.0,2076
66110905,2.0,1495
96048502,3.0,432
23199365,1.0,1149
101047591,1.0,573
60235656,1.0,1350
91448429,1.0,401
125620754,3.0,873
12993299,2.0,232
135064893,2.0,600
139229212,2.0,679
74086300,1.0,1567
81434383,3.0,1078
136219994,1.0,626
91613606,,326
45288089,1.0,1870
31258643,1.0,1710
123543539,2.0,901
129445743,3.0,1956
111850883,1.0,2121
48842699,2.0,1903
74582712,1.0,1557
122922521,2.0,768
109783650,2.0,2088
31320765,2.0,1713
127831241,2.0,773
111042241,3.0,2061
90553028,3.0,350
94667835,3.0,456
25913188,1.0,1203
90220630,1.0,400
124501111,,860
134945862,1.0,627
100470066,2.0,502
86769016,2.0,398
135965577,3.0,626
39275550,1.0,964
111410933,1.0,2049
113597921,2.0,2137
77915473,3.0,1628
59080809,3.0,1363
103801286,1.0,2196
116694655,1.0,724
71897910,,2168
17718563,1.0,6
137477697,1.0,645
127804942,2.0,912
2217624,3.0,2247
123685662,,762
31895645,2.0,1670
34195374,1.0,1704
80084082,1.0,1076
19862100,2.0,39
123893335,2.0,860
78129426,2.0,1637
87741892,3.0,329
77545160,1.0,1623
132302198,2.0,1984
105470880,1.0,2232
125478580,3.0,844
91017187,1.0,266
45110672,1.0,1851
33338744,3.0,1664
132681096,2.0,2015
87454422,1.0,373
63162467,4.0,1424
132002706,,1974
39673637,3.0,985
23922394,2.0,1168
54851589,1.0,1273
113856318,,2151
81913163,3.0,1096
123411269,1.0,833
87330080,1.0,288
135438967,3.0,624
101972934,1.0,510
24735908,3.0,1185
104973180,1.0,2212
128222929,2.0,923
38534661,2.0,1024
138658091,2.0,676
81424470,3.0,1108
47044294,1.0,1816
111819078,1.0,2116
122735184,4.0,772
53975792,2.0,1266
87994113,2.0,325
13245125,1.0,217
113913392,1.0,2129
16725188,1.0,177
114366565,,2134
93720774,1.0,458
109839914,2.0,2114
80294675,1.0,1072
2157277,1.0,2262
16763253,3.0,102
4547325,2.0,2318
31574257,1.0,1765
24948857,3.0,1182
13527249,1.0,129
61995975,1.0,1396
70477868,1.0,1500
124299450,1.0,949
108243113,1.0,2067
104661866,3.0,2208
99427355,3.0,495
99353036,1.0,522
69191751,2.0,1506
30550742,,1695
14840393,3.0,246
135986073,1.0,613
90097303,,388
4759723,3.0,2293
127418232,3.0,884
124745059,2.0,796
52519244,3.0,1254
101794623,,515
82660807,2.0,1127
139384699,2.0,690
81492295,3.0,1064
93974441,3.0,475
5332667,1.0,2288
16670977,,25
127549222,3.0,836
39602993,1.0,1016
5621491,3.0,2291
90417929,3.0,398
67601670,3.0,1475
113591799,1.0,2128
101807863,1.0,502
32162124,3.0,1672
49089271,3.0,1935
133085440,1.0,2021
104969093,,2221
38158499,1.0,979
123024476,3.0,905
132173153,,1972
30997907,,1687
19971332,3.0,71
88328581,3.0,332
14613204,1.0,99
70621257,2.0,1516
32453109,1.0,1743
14947243,1.0,196
33477105,,1715
139399182,3.0,668
116167483,,710
43811111,1.0,1838
33552956,3.0,1727
67843088,1.0,1484
46233714,2.0,1851
113832255,,2141
140065260,1.0,670
140274722,2.0,690
43942156,2.0,1809
46815584,3.0,1850
123178602,1.0,843
46786928,1.0,1851
13423740,2.0,160
110617056,2.0,2062
19912633,3.0,144
82868131,,1124
25216274,1.0,1179
125656491,2.0,860
19484996,1.0,80
81491978,1.0,1044
33691442,,1670
20062673,2.0,105
111961976,1.0,2121
34786054,3.0,1676
45764571,,1863
87111827,3.0,306
5175785,3.0,2279
131744594,1.0,1970
62372316,3.0,1416
95258876,3.0,438
52527555,1.0,1255
74771726,1.0,1584
38044549,3.0,972
79768935,3.0,1112
66201772,3.0,1433
69919159,3.0,1505
132805436,3.0,1975
15281697,3.0,16
56506920,1.0,1318
91132106,2.0,374
32035044,3.0,1786
12782622,1.0,192
132236701,1.0,1980
37704681,3.0,969
131549210,3.0,2017
14142411,3.0,196
78141586,2.0,1630
16637234,1.0,115
108755462,2.0,2043
70014176,3.0,1505
56582289,1.0,1311
125628453,1.0,787
33611123,1.0,1715
111910765,,2121
139118638,1.0,677
126959191,2.0,854
81513564,3.0,1062
105102791,1.0,2231
135949955,3.0,592
31487943,1.0,1758
87364530,1.0,323
74058512,3.0,1569
137491702,1.0,647
39046357,2.0,997
139022268,2.0,658
125583607,,762
48399590,2.0,1905
54658514,1.0,1271
94712357,1.0,419
67441041,,1431
41239019,,1790
131899643,1.0,1994
132097438,3.0,1984
127810943,,784
41424650,3.0,1789
109561933,3.0,2047
2549623,3.0,2274
15938481,3.0,191
32206248,1.0,1713
38418428,1.0,1012
59788405,3.0,1352
136249245,3.0,601
131763098,1.0,1970
61986995,1.0,1409
34989911,2.0,1651
73342978,,1568
103074711,2.0,2201
49834238,3.0,1914
101116624,3.0,502
20459997,1.0,6
135622771,3.0,616
71343480,3.0,2163
127082904,3.0,776
135207253,3.0,586
4950436,,2281
67692274,2.0,1496
139939296,3.0,672
127069352,1.0,791
128232789,2.0,753
5552752,2.0,2287
19610877,3.0,99
74303807,1.0,1566
66946223,,1435
100548082,2.0,555
66599270,,1469
65982621,1.0,1473
103248246,3.0,2193
56920829,2.0,1296
124412524,1.0,852
34251851,1.0,1762
110868665,1.0,2104
122269839,,776
70560272,1.0,1518
101207490,3.0,529
117150794,1.0,740
58860585,1.0,1346
111120730,2.0,2091
111910163,2.0,2117
136320648,2.0,633
110512748,3.0,2057
108658842,,2095
82627210,,1133
82681561,,1129
113308169,3.0,2151
45132536,1.0,1888
56911562,1.0,1299
88110749,1.0,291
103329879,1.0,2205
4705060,,2283
25090332,1.0,1198
124576613,1.0,765
87847513,1.0,326
6814879,1.0,2339
26217628,1.0,1209
69474700,1.0,1531
77924286,1.0,1628
137137647,2.0,643
37923172,2.0,962
101818578,1.0,511
41300422,1.0,1790
132023227,1.0,2011
98835844,1.0,555
32444206,3.0,1653
13414358,3.0,89
114367785,1.0,2134
56588704,3.0,1321
133025032,,1982
111351366,,2048
34456005,1.0,1778
65622753,2.0,1438
14427529,3.0,125
25194606,1.0,1179
52585442,1.0,1236
40125112,1.0,1009
34213274,,1641
46979144,2.0,1810
80621390,3.0,1050
69761787,1.0,1521
33654147,,1696
32692156,2.0,1725
80134484,1.0,1109
54395649,1.0,1287
62623701,,1382
139825250,1.0,669
25466719,1.0,1179
51212491,2.0,1220
56616528,2.0,1297
109704203,1.0,2079
51491074,1.0,1215
94763407,1.0,426
122149929,3.0,818
132410409,2.0,2011
61761171,3.0,1392
16695315,2.0,98
70422101,1.0,1500
124996226,1.0,767
1991340,1.0,2268
108857940,3.0,2082
6377763,1.0,2350
126748876,1.0,790
94652873,1.0,465
31858222,,1762
123772782,2.0,780
4514009,1.0,2287
109892494,2.0,2084
109811482,,2080
39586007,2.0,1018
51194089,1.0,1221
122877566,3.0,916
16466000,3.0,228
15742811,3.0,123
74153145,3.0,1573
100436862,1.0,534
73926923,2.0,1545
63217933,3.0,1423
131765618,1.0,1981
80045162,3.0,1074
15093000,2.0,230
108419896,1.0,2097
45274062,1.0,1805
88934539,3.0,353
96250780,1.0,464
114316581,3.0,2141
105613913,3.0,2236
19234008,3.0,104
63051116,,1387
122390136,1.0,911
30392723,2.0,1699
93854483,3.0,467
110849283,1.0,2035
58827418,3.0,1359
89139099,2.0,332
6480120,1.0,2340
1153009,,2241
18927170,3.0,122
124834754,1.0,937
44634630,2.0,1842
4395814,1.0,2288
90447196,1.0,299
96453654,3.0,490
59141545,1.0,1365
94713916,3.0,441
46964244,,1806
129538427,2.0,1961
101433998,1.0,524
2438304,,2275
69667559,1.0,1516
31918511,3.0,1703
96019961,2.0,415
127402848,2.0,860
19453871,,24
18284727,,66
81723982,3.0,1092
131996303,3.0,2006
70006434,2.0,1528
49002715,1.0,1932
87163197,3.0,329
38057829,2.0,967
18533594,1.0,91
4474259,2.0,2300
6541509,2.0,2334
140101441,1.0,674
35303799,3.0,1763
86747399,,352
124189894,2.0,819
32512376,1.0,1722
80664709,1.0,1099
128473386,1.0,867
117446539,1.0,745
21374487,3.0,155
81095315,3.0,1048
2499830,1.0,2275
55775349,2.0,1313
77954918,1.0,1637
87242342,1.0,401
96057385,1.0,445
35044344,,1730
14676603,3.0,91
117731874,1.0,712
110558798,3.0,2077
62102665,1.0,1399
38039672,3.0,988
21233792,3.0,209
51455864,3.0,1218
35432218,,1673
31967940,1.0,1652
5538963,3.0,2314
136520016,2.0,593
127397382,3.0,807
126411483,1.0,786
111805883,2.0,2119
16764851,3.0,31
49161130,1.0,1940
139716559,3.0,688
114222477,1.0,2132
124637654,3.0,857
38829615,1.0,980
123709813,3.0,772
135918269,,628
91563958,,330
46864080,,1822
81674185,3.0,1047
18602313,3.0,106
46938445,,1848
113452366,3.0,2147
110246882,2.0,2039
1478789,3.0,2242
140160216,3.0,676
34223921,3.0,1638
6762395,1.0,2333
117570509,1.0,707
73898494,3.0,1568
123303551,1.0,925
67171749,1.0,1457
77270142,2.0,1610
52567635,2.0,1256
71418063,,2177
37691361,3.0,978
94520179,3.0,416
15643719,1.0,200
86544266,3.0,372
19740504,3.0,27
33705201,2.0,1746
45160630,,1842
31704080,,1674
52784356,2.0,1236
73869878,3.0,1555
52830063,,1239
88356923,,293
132596241,1.0,1983
127785422,1.0,904
105424179,,2232
70503155,1.0,1526
21289897,3.0,18
30032220,1.0,1733
94178207,1.0,433
101059294,1.0,584
1808086,,2247
49956061,3.0,1913
25863461,3.0,1207
59878519,1.0,1335
37624139,3.0,982
125210986,3.0,784
95728677,1.0,412
95779419,1.0,449
89840834,2.0,335
18141703,3.0,57
111458845,,2025
94717149,3.0,418
77266637,1.0,1623
131475977,1.0,1979
3984062,1.0,2316
67089044,1.0,1482
33278576,1.0,1645
78223647,,1637
38258278,,987
67735283,1.0,1442
105091699,3.0,2209
15222514,1.0,48
46712468,3.0,1822
89597677,2.0,379
25772183,1.0,1204
48647249,2.0,1930
52775012,1.0,1252
101983464,1.0,495
4203864,3.0,2288
32489912,3.0,1665
140171688,2.0,665
44675109,2.0,1808
109574939,2.0,2087
108282858,1.0,2092
69703051,1.0,1506
15217041,1.0,30
23031565,,1134
38167457,1.0,963
16517273,2.0,89
31030990,1.0,1785
76180024,3.0,1605
14638248,3.0,50
30465328,1.0,1780
91163103,3.0,298
138981176,1.0,666
117132676,4.0,712
86913807,3.0,281
101319667,3.0,515
59473409,3.0,1371
82436397,3.0,1126
38238437,3.0,1013
104601037,3.0,2226
123503124,1.0,754
30252696,3.0,1688
82910194,1.0,1128
87032818,3.0,299
56540708,3.0,1300
4641608,3.0,2313
96142643,1.0,464
66169047,2.0,1472
37557396,3.0,1014
133172600,1.0,1973
113954733,3.0,2131
113749711,1.0,2144
39943913,,972
25248784,3.0,1177
66828631,1.0,1476
77141380,,1617
35722318,,1785
127275356,1.0,862
127908274,1.0,900
6271120,,2349
98855456,2.0,529
102024664,1.0,541
99826290,2.0,565
96581161,1.0,491
126854990,,922
53670958,2.0,1273
35131708,1.0,1686
113064347,,2135
16954033,,140
65541777,2.0,1464
95911455,3.0,444
123124522,2.0,795
23753570,3.0,1150
89601857,2.0,351
81267504,1.0,1089
32322289,3.0,1742
70063713,3.0,1512
50817978,1.0,1231
66467117,3.0,1479
135265925,1.0,627
124953164,2.0,795
1779537,2.0,2270
101874653,2.0,521
87566737,3.0,353
37923939,1.0,1015
127534505,,821
52123397,1.0,1242
123818541,3.0,956
35787954,3.0,1702
67188950,1.0,1452
25870738,1.0,1205
139711948,1.0,692
110880745,1.0,2039
70581897,1.0,1513
81595892,,1066
131735815,2.0,1987
66154475,,1442
6897390,3.0,2333
108441855,1.0,2023
125986287,3.0,955
59968297,3.0,1375
22642831,1.0,1149
56448539,1.0,1305
23298805,1.0,1145
31008535,1.0,1660
100340127,2.0,520
73915799,1.0,1567
71269540,3.0,2166
17982094,1.0,238
52086179,1.0,1252
110222631,2.0,2094
18139531,3.0,240
89659453,1.0,369
37788322,,1012
133013247,1.0,1979
122761132,2.0,916
50039788,3.0,1935
48888685,3.0,1903
40712821,3.0,1038
22672245,3.0,1164
98947582,2.0,554
13793449,1.0,238
139718409,2.0,675
61656743,1.0,1428
44395805,1.0,1824
32106374,,1653
1845460,1.0,2259
20667492,1.0,114
89735046,3.0,394
1172168,3.0,2247
111953277,3.0,2118
114366768,3.0,2123
43888591,,1866
94112469,,416
3967413,1.0,2303
41202901,1.0,1791
137267181,2.0,643
4506100,2.0,2324
90704569,3.0,299
17878954,3.0,32
21202660,3.0,13
18367267,2.0,127
114597246,,2157
114110688,1.0,2141
82855684,1.0,1120
17615914,2.0,166
114670940,2.0,2156
63382362,1.0,1380
132472036,3.0,2010
35805450,2.0,1722
122241857,,815
3795072,,2307
23331624,3.0,1139
126547635,2.0,849
20215939,3.0,49
44756416,1.0,1854
132817054,1.0,2013
89366630,,312
74371673,,1553
66789396,,1450
16660033,3.0,75
78174429,1.0,1632
48682727,1.0,1901
135002552,,633
124208775,3.0,823
81547493,3.0,1113
32834021,3.0,1679
67587949,1.0,1469
23407844,3.0,1155
99393839,,505
132223860,1.0,1998
101504334,1.0,557
66602203,2.0,1469
87614279,2.0,276
124544734,1.0,955
108308058,3.0,2080
18465789,3.0,121
70471618,1.0,1516
111460468,1.0,2045
34173733,3.0,1736
51265680,2.0,1215
19338592,1.0,88
135942700,,615
79890597,1.0,1052
122604201,,782
101121261,3.0,573
48952286,1.0,1922
114661325,1.0,2154
110258008,2.0,2072
100466403,1.0,525
49523868,,1914
59816268,4.0,1340
45823646,3.0,1819
89761669,2.0,271
43902185,2.0,1832
87137130,1.0,288
6928197,2.0,2350
99973950,1.0,530
20350482,1.0,90
95235886,3.0,461
133538338,,1987
99306442,3.0,554
49273883,2.0,1918
1111279,,2258
50024275,1.0,1893
88969622,2.0,307
31031046,1.0,1785
13007315,3.0,199
77273264,3.0,1623
109010770,1.0,2056
33820911,3.0,1731
109417565,3.0,2083
46697687,1.0,1823
38633007,1.0,973
90451251,2.0,282
18524501,1.0,47
56517248,3.0,1297
113393088,1.0,2149
44225164,2.0,1816
25262573,1.0,1199
51213623,3.0,1215
45679874,1.0,1861
46773851,,1821
122119955,3.0,845
73793059,3.0,1559
5490835,,2297
69773999,2.0,1502
51167184,1.0,1217
50016706,1.0,1906
99306612,1.0,564
59654874,1.0,1361
109360700,1.0,2079
59031330,1.0,1341
38614119,3.0,986
70283292,1.0,1540
90060593,3.0,313
63013389,2.0,1425
105182482,3.0,2222
75347118,4.0,1593
135280794,1.0,591
117022983,2.0,736
108627146,3.0,2050
77056518,3.0,1615
6398379,2.0,2335
34455309,1.0,1697
38956333,,990
57412821,1.0,1327
108956636,1.0,2108
43919613,1.0,1878
79908566,,1051
44338001,2.0,1851
61643289,2.0,1398
87792223,3.0,306
80156488,3.0,1074
39919846,1.0,966
32832188,2.0,1722
65411080,1.0,1471
46417120,2.0,1857
134806247,1.0,596
94517995,2.0,446
38999410,3.0,980
116931690,,713
80267597,1.0,1110
39677476,1.0,997
129839213,,1966
55930989,2.0,1295
126900523,2.0,951
91615733,2.0,387
116092819,3.0,717
82513877,1.0,1132
111305599,1.0,2044
69206546,1.0,1536
35284482,3.0,1736
48277161,3.0,1925
133320413,3.0,1999
40494566,1.0,1040
86398802,,271
31390809,2.0,1704
22969500,1.0,1140
116117230,3.0,737
5373503,3.0,2298
46056199,2.0,1868
34200628,2.0,1738
126281760,1.0,901
132700291,3.0,2020
23015318,1.0,1144
129382808,1.0,1951
94713441,,470
95159564,1.0,480
59867673,2.0,1353
131997695,3.0,1973
105287325,,2227
62938343,2.0,1385
23481706,3.0,1139
35757192,1.0,1722
48500526,,1903
35273868,,1643
101150371,1.0,514
3960109,3.0,2324
21654775,1.0,241
124161742,1.0,789
136539777,1.0,626
93671070,,438
123065304,2.0,801
60143944,1.0,1369
51490385,,1219
37545439,2.0,1028
69211555,1.0,1531
47019780,1.0,1842
17153024,2.0,260
81453975,1.0,1049
94057407,1.0,430
138766737,3.0,672
74390675,,1583
3812466,1.0,2288
127336817,2.0,901
15824758,4.0,133
37817448,3.0,1026
68106396,3.0,1460
24626913,1.0,1181
31890825,2.0,1751
95395803,1.0,470
77046490,1.0,1619
133329314,,1990
43939916,3.0,1853
109489139,3.0,2023
123939976,2.0,773
109146469,3.0,2089
90166589,3.0,303
117295469,3.0,709
32422479,4.0,1673
23975725,2.0,1166
65971830,,1460
135210877,3.0,586
54072013,,1259
54538443,3.0,1279
74714266,3.0,1576
13450254,,184
75860504,1.0,1609
71281776,1.0,2164
32443207,3.0,1717
5387930,1.0,2309
4538397,3.0,2298
80443882,1.0,1049
122189787,2.0,782
62557116,2.0,1398
939562,,2264
62262832,1.0,1414
